Buy,New with tags,,,,,,,,,Charge for Shipping,USPS,,,Returns Not Accepts
Sell,New without tags,,,,,,,,,Offer free Shipping,FedEx,,,Accept Returns
Trade,New with defects,,,,,,,,,Local Pick Up,DHL,,,
Donate,Excellent,,,,,,,,,,UPS,,,
,Good,,,,,,,,,,,,,
,Fair,,,,,,,,,,,,,
,,,,,,,,,,,,,,
I am Looking to,Condition,Quantity,Product Title (Store View),Short Description (Store View),Youtube video URL,Original Price,Sale Price,Sale Start Date,Sale End Date,Shipping,Shipping Method,Shipping Price ,Shipping Days,Returns
Sell,New with tags,9,CSV upload 1,CSV upload 1 CSV upload 1 CSV upload 1 CSV upload 1,,9,,,,Local Pick Up,FedEx,,,Accept Returns
But,Fair,10,CSV upload 2,CSV upload 2,,10,,,,Local Pick Up,FedEx,,,Accept Returns
Trade,Good,11,CSV upload 3,CSV upload 3,,11,,,,Local Pick Up,FedEx,,,Accept Returns
