1. Buy,1. New with tags,,,,,,,,,1. Charge for Shipping,1. USPS,,,1. Returns Not Accepted
2. Sell,2. New without tags,,,,,,,,,2. Offer free Shipping,2. FedEx,,,2. Accept Returns
3. Trade,3. New with defects,,,,,,,,,3. Local Pick Up,3. DHL,,,
4. Donate,4. Excellent,,,,,,,,,,4. UPS,,,
,5. Good,,,,,,,,,,,,,
,6. Fair,,,,,,,,,,,,,
,,,,,,,,,,,,,,
I am Looking to,Condition,Quantity,Product Title (Store View),Short Description (Store View),Youtube video URL,Original Price,Sale Price,Sale Start Date,Sale End Date,Shipping,Shipping Method,Shipping Price ,Shipping Days,Returns
Buy,New,12,Sample text here,Sample text here,,12,10,02-18-2018,06-18-2018,Local Pick Up,DHL,1,5,Accept Returns
